com\epam\demologin\CheckoutServlet.class
com\epam\demologin\LogoutServlet.class
com\epam\demologin\LoginServlet.class
com\epam\demologin\ProjectRequestListener.class
com\epam\demologin\CharsetFilter.class
com\epam\demologin\SecurityFilter.class
